PDF를 데이터로 보는 올바른 자세
…
sysfonts 팩키지를 활용하여 폰트가 설치된 디렉토리와 파일을 확인할 수 있다. font_paths()를 통해 폰트가 설치된 디렉토리 확인이 가능하고, font_files() 함수를 통해 구체적으로 설치된 폰트를 확인한다.

library(tidyverse)

sysfonts::font_paths()

[1] "C:\\Windows\\Fonts"

sysfonts::font_files() %>% 
  as_tibble() %>% 
  filter(str_detect(family, pattern = "Nanum")) %>% 
  select(-version, -ps_name)

# A tibble: 25 x 4
   path            file                        family                  face     
   <chr>           <chr>                       <chr>                   <chr>    
 1 C:/Windows/Fon~ NanumBarunGothic.ttf        NanumBarunGothic        Regular  
 2 C:/Windows/Fon~ NanumBarunGothicBold.ttf    NanumBarunGothic        Bold     
 3 C:/Windows/Fon~ NanumBarunGothicLight.ttf   NanumBarunGothic Light  Light    
 4 C:/Windows/Fon~ NanumBarunGothicUltraLight~ NanumBarunGothic Ultra~ UltraLig~
 5 C:/Windows/Fon~ NanumBarunpenB.ttf          NanumBarunpen Bold      Bold     
 6 C:/Windows/Fon~ NanumBarunpenR.ttf          NanumBarunpen           Regular  
 7 C:/Windows/Fon~ NanumBrush.ttf              Nanum Brush Script      Regular  
 8 C:/Windows/Fon~ NanumGothic.ttf             NanumGothic             Regular  
 9 C:/Windows/Fon~ NanumGothicBold.ttf         NanumGothic             Bold     
10 C:/Windows/Fon~ NanumGothicCoding-Bold.ttf  NanumGothicCoding       Bold     
# ... with 15 more rows
…
